{
  "artifactGenerations" : [ ],
  "artifactId" : "legend-query-test",
  "groupId" : "org.finos.legend.test",
  "metamodelDependencies" : [ ],
  "projectDependencies" : [ ],
  "projectId" : "PROD-25339854",
  "projectStructureVersion" : {
    "extensionVersion" : 2,
    "version" : 12
  }
}